MhswID,NM MHSW,NilaiAkhir
13021001,KLARAMANG,21.20
13021002,ANASTASYA AILIN MAMARODIA,63.70
13021003,NENCY WOLLAH,80.00
13021004,ANCELA MARIA LOMBAN,59.50
13021005,RICCY GERALDO TANIA,71.20
13021006,KUMOWAL VERONIKA VINEKE,62.50
13021007,ANDREAS CHRISTOFEL WAWOLANGI,79.90
13021008,ELISABET HARIANTI DEWI,62.10
13021009,TARCISIUS B TAMBAHANI,55.10
13021010,NATALIA IGNASIA TAMBAHANI,82.50
13021011,ARFIAN MELO,71.70
13021012,I`IN BARUKEN SAMPEWAI,67.00
13021013,KARTIKA MARISTELLA MANOREK,65.70
13021014,YANTO ST. SONDAKH,58.50
13021017,PAUL FORD EBENHARD PATRAS,22.70
13021018,YUSPINA TONAPA,68.50
13021019,GILBERTUS SEBENAN,60.30
14021001,CICILIA FITRIYANI,84.70
14021002,VALENTINO ZEVANDRO POLUAKAN,72.70
14021003,MARTHA FLORENTINA MANDAGI,82.50
14021004,KAMANG JOHANES MONTONG,93.50
14021005,ALFRIANI SISILIA RUNTU,83.00
14021006,ANDREW BILLARY CRISTOMUS WERA,73.00
14021007, SUCILIA NANCY KALANGI,80.70
14021008,YOHANES BRENDA PONTOH,79.00
14021010,TAUVAN FREDRICK WATUPONGOH,72.00
14021011,PAULA JEANNE D` ARC MONTOLALU,79.00
14021012,MARIA LISDIANI RONA,76.50
14021013,FLORENTIANO MAURITIO LASUT,67.70
14021014,MARIA SERLIN SUSANTI MBEJO,83.50
14021015,MAXIMUS AGA,37.50
14021016,JIMMY LORENSO MEWENGKANG,70.00
14021018,PATRICIA VERONIKA WENNY TOMBOKAN,89.50
14021019,VINICA SISCA RUNTUKAHU,83.50
14021020,LUPITA ANGELA TAHAS,83.70
14021022,IRIANA ZONGGONAU,77.00
14021023,ALETA YOBEE,81.00
14021024,OLVIANI RANTUNG,89.50
14021026,MARIA FILIANTI BARE,79.20
14021027,FLORIANA WONA,80.70
14021028,YUNI WELERUBUN,83.00
14021029,MARVIL KALALO,83.00
14121032,HARRY DEARDO SARAGIH,82.00
15021002,FERONIKA NGAWI,82.50
15021003,BILLY RAIMOND SUMUAL,72.50
15021004,LINDA FRISILIA TEROK,72.50
15021006,KATARINA TOYO WEA,90.00
15021007,THERESIA IRMA SUYATI KADE,82.50
15021008,KANISIUS NOLDI KINDANGEN,35.00
15021011,MIKAELA YUNG PONTOH,80.00
15021012,BAGUS KAUNANG,72.50
15021014,MARIA LEONORA THERESIA HOKO,72.50
15021016,FLOWRENSIA LAURA WOWOR,80.00
15021018,STANISLAUS SALOMBRE,70.00
15021020,ANGELITA SOFIA PAENDONG,82.50
15021022,YASPEN LUKU NUGA,75.00
15021023,AGRESIA ENGEL KARINDA,75.00
16021003,ANGELITA K. REENG,81.00
16021004,SHERIN OKTAVIANI BOWA,98.00
16021006,MARIA MAGDALENA TIMU,89.00
16021009,DEISI CHRSTIN WAULE,80.00
16021010,VIKENS ANGELINO OPING,72.00
16121002,LILY OKTOFINA MANERY,90.00
